# Blender 3.6.2
# www.blender.org
o MacCreedyHat
v -0.482298 12.973544 -0.488854
v -0.530382 12.982369 -0.513908
v -0.530859 13.011740 -0.494741
v -0.493454 13.004709 -0.475377
v -0.562414 12.963141 -0.479600
v -0.555591 12.996785 -0.468231
v -0.514379 12.954261 -0.454630
v -0.518216 12.989718 -0.448915
v -0.514379 12.954261 -0.454630
v -0.518216 12.989718 -0.448915
v -0.554215 13.103451 -0.425860
v -0.535861 13.114026 -0.445294
v -0.526585 13.097979 -0.411512
v -0.508222 13.109405 -0.430642
v -0.526585 13.097979 -0.411512
v -0.516658 12.758348 -0.593599
v -0.548953 12.739669 -0.557590
v -0.500484 12.730709 -0.532110
v -0.500484 12.730709 -0.532110
v -0.468592 12.749421 -0.568062
v -0.536223 13.182042 -0.393379
v -0.548953 12.739669 -0.557590
v -0.516658 12.758348 -0.593599
v -0.468592 12.749421 -0.568062
v -0.500484 12.730709 -0.532110
v 0.473755 12.809263 -0.595774
v 0.483055 12.809213 -0.603850
v 0.482572 12.965980 -0.521674
v 0.473622 12.958125 -0.518118
v 0.461592 12.791691 -0.596423
v 0.471345 12.790668 -0.604387
v 0.442613 12.976873 -0.545670
v 0.428745 12.989407 -0.528649
v 0.437752 12.999080 -0.529701
v 0.452697 12.984044 -0.548659
v 0.453593 12.825566 -0.632487
v 0.443141 12.825735 -0.625904
v 0.443245 12.805754 -0.632273
v 0.432803 12.807468 -0.624877
v 0.466291 12.981897 -0.504084
v 0.458192 12.971966 -0.502330
v -0.478858 13.041262 -0.538096
v -0.441619 13.034322 -0.518597
v -0.430745 13.002877 -0.531908
v -0.478894 13.011723 -0.557503
v -0.504053 13.026131 -0.511818
v -0.510919 12.992328 -0.523538
v -0.466609 13.019171 -0.492355
v -0.462804 12.983444 -0.498014
v -0.466609 13.019171 -0.492355
v -0.462804 12.983444 -0.498014
v -0.502540 13.133098 -0.468322
v -0.484105 13.144767 -0.487572
v -0.474844 13.127863 -0.454260
v -0.456410 13.139409 -0.473133
v -0.474844 13.127863 -0.454260
v -0.465525 12.786408 -0.638911
v -0.497735 12.768301 -0.603433
v -0.449195 12.759414 -0.577800
v -0.449195 12.759414 -0.577800
v -0.417177 12.777541 -0.613236
v -0.484291 13.213224 -0.435927
v -0.417177 12.777541 -0.613236
v -0.449195 12.759414 -0.577800
v -0.497735 12.768301 -0.603433
v -0.465525 12.786408 -0.638911
v -0.573168 12.263597 0.464146
v -0.331760 12.192442 0.661227
v -0.593798 12.269588 0.478873
v 0.016147 12.155778 0.702911
v 0.012316 12.154335 0.730373
v -0.733221 12.364824 0.244011
v -0.723473 12.469209 -0.010675
v -0.712399 12.467251 -0.009884
v 0.580603 12.271476 0.477951
v 0.343638 12.181847 0.664293
v 0.329527 12.184447 0.633504
v 0.727856 12.466529 -0.001631
v 0.712833 12.362398 0.253175
v 0.479537 12.721685 -0.580739
v 0.574743 12.585627 -0.838144
v 0.638695 12.567361 -0.617845
v 0.669034 12.540332 -0.221936
v -0.626019 12.583041 -0.635911
v -0.497831 12.713341 -0.584720
v 0.000622 12.848229 -0.751504
v -0.275258 12.816100 -0.723538
v -0.197989 12.756957 -1.206515
v 0.004713 12.784553 -1.216122
v 0.195095 12.755631 -1.198601
v 0.269660 12.815185 -0.723249
v 0.365065 12.696882 -1.121354
v 0.488125 12.629868 -1.006746
v -0.488109 12.637174 -1.013597
v -0.568045 12.597675 -0.839437
v -0.355899 12.707400 -1.141359
v -0.549978 12.998407 -0.545699
v -0.410020 13.029637 -0.579324
v -0.393132 12.861618 -0.652985
v -0.539784 12.842579 -0.620184
v -0.607367 12.939278 -0.467982
v -0.608575 12.776073 -0.534304
v -0.700604 12.600240 -0.236373
v -0.709891 12.758594 -0.197689
v -0.762225 12.487597 -0.005757
v -0.525992 12.820874 -0.610659
v -0.385070 12.849954 -0.650351
v -0.577910 12.756198 -0.518791
v -0.518133 12.994436 -0.522315
v -0.577083 12.945189 -0.460873
v -0.696237 12.787723 -0.208276
v -0.682024 12.592724 -0.244379
v -0.731537 12.487232 -0.008868
v -0.753295 12.671048 0.045633
v 0.002017 13.265167 0.219914
v 0.035749 13.289186 -0.070410
v -0.696095 12.822649 -0.214494
v 0.220521 13.359464 -0.346071
v -0.005122 13.383734 -0.345443
v -0.231002 13.360836 -0.351590
v -0.023394 12.913867 0.707446
v 0.002245 12.650641 1.007573
v 0.576458 12.635840 0.626945
v 0.308411 12.534096 0.849738
v 0.328837 12.393668 0.757369
v 0.583188 12.486468 0.547910
v 0.623495 12.749401 0.753825
v 0.332127 12.683429 0.970780
v -0.014691 13.144149 0.480198
v 0.721439 12.601402 0.287675
v 0.760096 12.730801 0.386520
v 0.801023 12.904417 0.476281
v 0.750749 12.697887 0.065158
v -0.017241 12.359216 0.818240
v 0.779471 12.856757 0.128557
v 0.825571 13.023569 0.200410
v 0.719575 12.815878 -0.173134
v 0.558899 13.300137 -0.370367
v 0.762485 12.986584 -0.135599
v 0.772807 13.175404 -0.070209
v 0.572076 12.940313 -0.398129
v 0.426269 13.048056 -0.521834
v 0.520759 13.142476 -0.394802
v 0.310805 13.459278 -0.496307
v 0.265773 13.271810 -0.546456
v 0.215053 13.105067 -0.621442
v 0.022408 13.301411 -0.568218
v 0.000907 13.483109 -0.532101
v 0.000421 13.127787 -0.646746
v -0.393132 12.861618 -0.652985
v -0.410020 13.029637 -0.579324
v -0.217635 13.087879 -0.623124
v -0.204712 12.909874 -0.710504
v -0.255563 13.272252 -0.554429
v -0.291935 13.479094 -0.506584
v -0.386873 13.033070 -0.562539
v -0.386873 13.033070 -0.562539
v -0.385070 12.849954 -0.650351
v -0.581251 12.943752 -0.410831
v -0.506769 13.154185 -0.419910
v -0.690155 13.020418 -0.240628
v -0.672676 13.236136 -0.243355
v -0.563959 13.307332 -0.384594
v -0.749048 13.196058 -0.147064
v -0.754216 12.955849 -0.108039
v -0.789800 13.069011 0.006183
v -0.728803 12.567460 0.297745
v -0.780213 12.653213 0.041077
v -0.577935 12.626131 0.608499
v -0.758352 12.719296 0.380155
v -0.579539 12.468119 0.540383
v -0.623050 12.748684 0.737932
v -0.778092 12.898367 0.469959
v -0.299273 12.521965 0.825866
v -0.318020 12.662915 0.962697
v -0.303692 12.388203 0.745367
v 0.001139 12.515069 0.859213
v -0.805682 12.836635 0.091851
v -0.798215 12.962587 0.255813
v 0.638695 12.567361 -0.617845
v 0.659734 12.578755 -0.615199
v 0.684519 12.548828 -0.228341
v 0.574743 12.585627 -0.838144
v 0.593932 12.593405 -0.837038
v 0.590567 12.718984 -0.504036
v 0.589488 12.670232 -0.647303
v 0.590567 12.718984 -0.504036
v 0.488125 12.629868 -1.006746
v 0.491240 12.642385 -1.008610
v 0.415051 12.753608 -0.824961
v 0.365065 12.696882 -1.121354
v 0.371076 12.712297 -1.126473
v 0.401019 12.826336 -0.664545
v 0.401019 12.826336 -0.664545
v 0.377183 12.768060 -0.851081
v 0.224684 12.887909 -0.745025
v 0.195095 12.755631 -1.198601
v 0.203679 12.772276 -1.195001
v 0.198454 12.815542 -0.908295
v 0.224684 12.887909 -0.745025
v 0.004713 12.784553 -1.216122
v 0.005145 12.797153 -1.220469
v 0.026763 12.898645 -0.767792
v 0.016099 12.838230 -0.932288
v 0.026763 12.898645 -0.767792
v -0.197989 12.756957 -1.206515
v -0.202333 12.777480 -1.210022
v -0.201272 12.878059 -0.748845
v -0.199994 12.814178 -0.926094
v -0.201272 12.878059 -0.748845
v -0.355899 12.707400 -1.141359
v -0.371949 12.722020 -1.141730
v -0.567758 12.706604 -0.499625
v -0.626019 12.583041 -0.635911
v -0.639880 12.599898 -0.637498
v -0.585456 12.604240 -0.837479
v -0.568045 12.597675 -0.839437
v -0.670063 12.565660 -0.251353
v -0.420994 12.751062 -0.841061
v -0.424923 12.807987 -0.667980
v -0.424923 12.807987 -0.667980
v -0.585159 12.657768 -0.670855
v -0.567758 12.706604 -0.499625
v -0.499715 12.654346 -1.006484
v -0.488109 12.637174 -1.013597
v -0.257427 12.686696 0.666295
v -0.327507 12.185207 0.631265
v -0.497319 12.779078 0.418303
v 0.013946 12.666210 0.727787
v -0.708596 12.363215 0.233147
v -0.552953 12.926170 -0.012277
v -0.658823 12.556668 -0.251832
v 0.267020 12.685687 0.667977
v 0.499575 12.776314 0.425101
v 0.555332 12.265450 0.462015
v 0.567988 12.916422 0.004346
v 0.702168 12.461218 0.000249
v 0.675563 12.355401 0.252082
v 0.311644 13.138837 -0.431325
v 0.479537 12.721685 -0.580739
v -0.320461 13.134561 -0.433852
v -0.497831 12.713341 -0.584720
v 0.002355 13.213926 -0.510008
v -0.275258 12.816100 -0.723538
v 0.000622 12.848229 -0.751504
v 0.269660 12.815185 -0.723249
v 0.295295 13.152657 0.272494
v 0.314324 13.196984 0.169220
v 0.382908 13.235319 -0.068111
v -0.518570 13.277365 -0.274865
v -0.361170 13.206034 0.080000
v -0.299595 13.168741 0.190398
v -0.500928 13.272269 -0.237634
v -0.449538 13.230947 -0.115145
v -0.233415 13.145432 0.314883
v 0.761647 12.960812 0.176840
v 0.710985 13.101620 -0.071815
v 0.512149 13.217510 -0.349054
v -0.625611 13.158381 -0.231972
v -0.525159 13.223766 -0.361469
v -0.696724 13.120917 -0.142681
v -0.735220 13.003382 -0.001628
v -0.743824 12.905329 0.228771
v -0.515147 12.872605 -0.017835
v -0.299899 13.064943 -0.408369
v 0.269237 13.081234 0.244863
v 0.286741 13.122115 0.149525
v 0.349856 13.157655 -0.070053
v -0.482767 13.197149 -0.262561
v -0.338196 13.130432 0.067073
v -0.281358 13.096037 0.169056
v -0.466570 13.192347 -0.228014
v -0.419508 13.153723 -0.113846
v -0.222949 13.073897 0.284564
vn 0.9681 0.2282 -0.1035
vn -0.1946 0.4270 -0.8831
vn -0.1926 0.4814 -0.8551
vn 0.9565 0.2785 -0.0871
vn -0.9813 -0.0044 0.1924
vn -0.9769 0.0390 0.2099
vn 0.2425 -0.2228 0.9442
vn 0.2386 -0.2134 0.9474
vn 0.0936 -0.2431 0.9655
vn 0.0865 -0.2323 0.9688
vn -0.9796 0.0201 0.2000
vn -0.1958 0.5014 -0.8428
vn 0.2357 -0.2488 0.9394
vn 0.9601 0.2692 -0.0762
vn 0.0884 -0.2694 0.9590
vn -0.1966 0.3128 -0.9292
vn -0.9691 -0.1336 0.2072
vn 0.2539 -0.3204 0.9126
vn 0.1203 -0.3450 0.9309
vn 0.9885 0.0955 -0.1171
vn -0.0645 0.9063 0.4177
vn 0.0483 -0.9082 -0.4158
vn 0.0480 -0.9083 -0.4155
vn 0.0479 -0.9080 -0.4162
vn 0.0482 -0.9078 -0.4165
vn 0.5806 -0.3945 0.7122
vn 0.9610 -0.2644 -0.0808
vn 0.9611 0.2100 0.1795
vn 0.5771 -0.3364 0.7442
vn 0.5601 -0.4064 0.7219
vn 0.8400 -0.5403 0.0509
vn -0.5126 0.4149 -0.7518
vn -0.5423 0.4153 -0.7303
vn -0.0008 0.7890 -0.6144
vn 0.2068 0.6730 -0.7101
vn 0.1929 0.1954 -0.9616
vn -0.5140 0.3280 -0.7926
vn -0.0332 -0.0110 -0.9994
vn -0.5441 0.2518 -0.8003
vn 0.8193 0.3951 0.4156
vn 0.5329 -0.3078 0.7882
vn -0.1917 0.4844 -0.8536
vn 0.9576 0.2749 -0.0856
vn 0.9687 0.2268 -0.1008
vn -0.1933 0.4318 -0.8810
vn -0.9770 0.0394 0.2097
vn -0.9816 -0.0047 0.1908
vn 0.2379 -0.2206 0.9459
vn 0.2412 -0.2305 0.9427
vn 0.0841 -0.2388 0.9674
vn 0.0915 -0.2509 0.9637
vn -0.9791 0.0191 0.2026
vn -0.1973 0.5018 -0.8422
vn 0.2359 -0.2504 0.9390
vn 0.9604 0.2676 -0.0772
vn 0.0892 -0.2707 0.9585
vn -0.1966 0.3189 -0.9272
vn -0.9704 -0.1324 0.2020
vn 0.2528 -0.3255 0.9111
vn 0.1187 -0.3508 0.9289
vn 0.9883 0.0955 -0.1193
vn -0.0624 0.9070 0.4164
vn 0.0510 -0.9082 -0.4154
vn 0.0507 -0.9080 -0.4158
vn 0.0507 -0.9082 -0.4154
vn 0.0509 -0.9084 -0.4150
vn -0.3574 -0.9339 0.0096
vn 0.3792 -0.1126 -0.9184
vn -0.4075 -0.6856 0.6032
vn -0.6778 -0.6381 0.3653
vn -0.0374 -0.0701 -0.9968
vn -0.0041 -0.8291 0.5591
vn -0.2848 -0.9121 -0.2949
vn -0.7757 -0.6308 0.0207
vn -0.6552 -0.6728 -0.3436
vn 0.9245 -0.3692 -0.0951
vn -0.6497 -0.7339 -0.1979
vn -0.8782 -0.3812 -0.2888
vn -0.7981 -0.2405 -0.5524
vn 0.6757 -0.6767 0.2923
vn 0.3802 -0.8007 0.4630
vn -0.4233 -0.0962 -0.9009
vn -0.9339 -0.3559 -0.0344
vn 0.7597 -0.5967 -0.2584
vn 0.7749 -0.6321 -0.0051
vn 0.2475 -0.9343 -0.2565
vn 0.4020 -0.8817 -0.2471
vn 0.8218 -0.5117 -0.2505
vn -0.6286 -0.7702 0.1076
vn -0.6632 -0.7341 0.1458
vn -0.6861 -0.7242 0.0692
vn -0.6962 -0.7178 0.0040
vn 0.7062 -0.7078 0.0155
vn 0.6922 -0.7171 0.0816
vn 0.6320 -0.7673 0.1087
vn -0.0117 -0.9897 0.1427
vn 0.3506 -0.9236 0.1549
vn 0.2199 -0.9639 0.1504
vn -0.0119 -0.9910 0.1331
vn -0.2433 -0.9578 0.1529
vn -0.3667 -0.9168 0.1583
vn -0.4604 -0.8751 0.1491
vn -0.5665 -0.8122 0.1394
vn 0.5545 -0.8221 0.1294
vn 0.6665 -0.7305 0.1485
vn 0.4335 -0.8890 0.1477
vn -0.5580 0.7806 -0.2818
vn -0.3542 0.8355 -0.4202
vn -0.2717 0.0049 -0.9624
vn -0.5018 -0.0649 -0.8625
vn -0.7750 0.6318 -0.0146
vn -0.7075 -0.3706 -0.6017
vn -0.7994 -0.4144 -0.4350
vn -0.9622 0.2239 -0.1549
vn -0.9216 0.3758 0.0974
vn -0.7232 -0.6093 -0.3252
vn -0.2462 -0.5517 -0.7969
vn -0.5588 0.2668 -0.7852
vn -0.2218 -0.7828 -0.5815
vn -0.1905 0.9055 0.3792
vn -0.2747 0.8613 0.4275
vn -0.9067 0.4191 -0.0476
vn -0.5016 -0.6916 -0.5197
vn -0.3290 -0.8514 -0.4085
vn -0.9712 0.2380 -0.0084
vn -0.0111 0.9552 0.2959
vn 0.0184 0.9710 0.2383
vn -0.8055 0.3745 0.4592
vn -0.6818 0.5359 0.4980
vn -0.9239 -0.0552 -0.3787
vn 0.1237 0.8794 0.4597
vn -0.0145 0.9125 0.4088
vn -0.1210 0.8690 0.4797
vn -0.8034 0.4159 0.4261
vn -0.7512 0.4744 0.4590
vn -0.1387 0.7134 0.6869
vn -0.0299 0.7391 0.6730
vn -0.0111 -0.7470 0.6647
vn 0.1423 0.7057 0.6941
vn 0.7431 -0.4664 0.4799
vn 0.3555 -0.5836 0.7301
vn 0.4384 -0.3709 0.8187
vn 0.7788 -0.2554 0.5729
vn 0.9153 -0.3799 0.1334
vn -0.0240 0.8384 0.5445
vn 0.9611 -0.2221 0.1641
vn 0.9205 -0.3394 0.1935
vn 0.0995 0.9890 0.1099
vn 0.5430 0.8314 0.1180
vn 0.9901 -0.1243 -0.0659
vn -0.0207 -0.3487 0.9370
vn 0.9739 -0.2085 -0.0896
vn 0.9414 -0.0648 -0.3311
vn 0.7869 0.5263 0.3224
vn 0.3435 0.9030 0.2582
vn 0.7842 0.4644 0.4116
vn 0.9138 -0.0239 -0.4055
vn 0.4506 0.8816 0.1406
vn 0.7890 0.2352 -0.5677
vn 0.6153 0.3242 -0.7186
vn 0.6965 0.1172 -0.7079
vn 0.4002 0.1292 -0.9073
vn 0.3296 0.2424 -0.9125
vn 0.3008 0.3958 -0.8677
vn 0.0158 0.8732 0.4871
vn 0.0342 0.2950 -0.9549
vn -0.0098 0.4214 -0.9068
vn -0.2917 0.7284 0.6200
vn -0.2544 0.0072 -0.9671
vn -0.3174 0.7839 -0.5336
vn -0.2763 0.3577 -0.8920
vn -0.2920 0.5623 -0.7737
vn -0.3076 0.2296 -0.9234
vn -0.6416 0.6518 -0.4044
vn -0.5404 0.6954 -0.4736
vn -0.5101 0.2318 -0.8283
vn -0.7837 0.1666 -0.5984
vn -0.5809 0.2338 -0.7797
vn -0.6487 0.1229 -0.7511
vn -0.8382 0.0129 -0.5452
vn -0.3354 0.9413 0.0382
vn -0.4965 0.8415 0.2129
vn -0.9448 -0.0773 -0.3184
vn -0.5465 0.7035 0.4544
vn -0.9386 -0.1723 0.2989
vn -0.6075 0.4955 0.6208
vn -0.9410 -0.2798 0.1905
vn -0.5173 0.8211 0.2412
vn -0.1702 0.6988 0.6948
vn -0.7500 -0.4502 0.4845
vn -0.9108 -0.2927 0.2912
vn -0.7592 -0.2060 0.6174
vn -0.2045 0.7708 0.6033
vn -0.4095 -0.5641 0.7170
vn 0.0088 -0.5394 0.8420
vn -0.4617 -0.3682 0.8070
vn -0.9906 -0.0720 -0.1163
vn 0.4775 -0.8646 -0.1565
vn 0.9502 -0.2402 -0.1984
vn 0.3758 -0.8609 -0.3429
vn 0.8798 -0.1860 -0.4375
vn 0.8576 0.3958 -0.3285
vn 0.7227 0.6497 -0.2357
vn 0.8429 0.4365 -0.3146
vn 0.7204 -0.3073 -0.6217
vn 0.8014 0.2345 -0.5502
vn 0.5663 0.7769 -0.2751
vn 0.3907 -0.4203 -0.8190
vn 0.5928 0.3345 -0.7326
vn 0.5985 0.6219 -0.5050
vn 0.6090 0.6058 -0.5119
vn 0.4460 0.8476 -0.2875
vn 0.3231 0.7113 -0.6243
vn 0.2390 0.0474 -0.9699
vn 0.3334 0.6359 -0.6961
vn 0.2388 0.9300 -0.2795
vn 0.3093 0.7116 -0.6308
vn 0.0032 -0.3174 -0.9483
vn 0.0173 0.5475 -0.8366
vn -0.0034 0.7639 -0.6453
vn 0.0113 0.9705 -0.2407
vn -0.0052 0.7617 -0.6479
vn -0.1760 -0.1896 -0.9660
vn -0.2825 0.5497 -0.7862
vn -0.2743 0.8310 -0.4840
vn -0.2424 0.9439 -0.2241
vn -0.2613 0.8427 -0.4707
vn -0.3447 -0.3870 -0.8552
vn -0.6051 0.3365 -0.7215
vn -0.8625 0.3936 -0.3180
vn -0.7567 -0.6340 -0.1597
vn -0.9850 0.0065 -0.1725
vn -0.8983 -0.1994 -0.3916
vn -0.3769 -0.8668 -0.3264
vn -0.5265 0.8215 -0.2190
vn -0.5923 0.7580 -0.2732
vn -0.6088 0.7526 -0.2510
vn -0.7202 0.6726 -0.1698
vn -0.8468 0.4427 -0.2949
vn -0.8554 0.2561 -0.4502
vn -0.7379 -0.2599 -0.6229
vn 0.2987 -0.5334 -0.7914
vn 0.5554 -0.6656 -0.4984
vn -0.0044 -0.5168 -0.8561
vn 0.6467 -0.7446 -0.1652
vn -0.3230 -0.5293 -0.7845
vn -0.5697 -0.6502 -0.5027
vn -0.6562 -0.7357 -0.1675
vn -0.4558 -0.8774 0.1498
vn -0.7912 -0.4514 0.4126
vn 0.4568 -0.8766 0.1510
vn 0.7916 -0.4736 0.3861
vn -0.0025 -0.9876 0.1567
vn 0.4039 -0.5494 0.7314
vn -0.0036 -0.5546 0.8321
vn -0.4263 -0.5453 0.7218
vn -0.7681 0.3383 0.5437
vn 0.7695 0.4907 -0.4086
vn 0.7214 0.5544 0.4150
vn 0.6288 0.4681 0.6209
vn -0.7720 0.5618 -0.2974
vn 0.6996 0.0278 -0.7139
vn -0.8786 -0.3083 0.3648
vn -0.8420 0.0913 -0.5317
vn 0.6880 0.4194 0.5923
vn 0.6989 0.4115 0.5850
vn 0.6943 0.4298 0.5773
vn 0.6873 0.4263 0.5881
vn -0.8896 -0.3466 0.2975
vn -0.9032 -0.3140 0.2925
vn 0.5830 0.4567 0.6720
vn 0.4332 0.5652 0.7021
vn -0.4034 0.6286 0.6650
vn -0.6492 0.5331 0.5425
vn -0.8152 -0.4176 0.4013
vn 0.9029 -0.4083 0.1341
vn -0.8800 -0.3295 0.3421
vn 0.8833 -0.3809 0.2732
vt 0.015671 0.895508
vt 0.021744 0.895264
vt 0.021713 0.899353
vt 0.016403 0.899658
vt 0.027435 0.895325
vt 0.026932 0.899475
vt 0.033386 0.895569
vt 0.032104 0.900208
vt 0.009727 0.895996
vt 0.011246 0.900635
vt 0.025421 0.913513
vt 0.021957 0.913208
vt 0.028931 0.914612
vt 0.018494 0.913696
vt 0.015045 0.914917
vt 0.021179 0.867920
vt 0.027237 0.867920
vt 0.033295 0.867798
vt 0.009048 0.868164
vt 0.015129 0.868042
vt 0.022171 0.923462
vt 0.026398 0.847656
vt 0.022690 0.855957
vt 0.012794 0.853516
vt 0.017197 0.843750
vt 0.025421 0.932983
vt 0.025497 0.933838
vt 0.013794 0.932678
vt 0.013985 0.931885
vt 0.026917 0.932800
vt 0.026871 0.933716
vt 0.013664 0.936462
vt 0.011780 0.936523
vt 0.011665 0.935669
vt 0.013573 0.935669
vt 0.025360 0.936829
vt 0.025208 0.937592
vt 0.026779 0.937073
vt 0.026657 0.937988
vt 0.011856 0.932434
vt 0.012100 0.931580
vt 0.049683 0.632568
vt 0.035400 0.639893
vt 0.035034 0.638672
vt 0.049377 0.631592
vt 0.019806 0.649170
vt 0.019363 0.648193
vt 0.065735 0.629728
vt 0.065369 0.625488
vt 0.081970 0.621094
vt 0.081970 0.621582
vt 0.098206 0.619141
vt 0.097656 0.618408
vt 0.258057 0.644775
vt 0.258301 0.643799
vt 0.273193 0.651123
vt 0.273193 0.652100
vt 0.288818 0.659668
vt 0.288086 0.660156
vt 0.225586 0.633789
vt 0.225586 0.632812
vt 0.242798 0.637939
vt 0.242798 0.639160
vt 0.210571 0.630859
vt 0.210327 0.629883
vt 0.258301 0.475586
vt 0.267822 0.493652
vt 0.251953 0.487793
vt 0.226685 0.471680
vt 0.297363 0.390137
vt 0.316895 0.411621
vt 0.307129 0.417969
vt 0.293457 0.456543
vt 0.303955 0.438965
vt 0.325928 0.464844
vt 0.317139 0.476562
vt 0.307129 0.486328
vt 0.278564 0.469727
vt 0.294678 0.492676
vt 0.281982 0.495117
vt 0.329834 0.438477
vt 0.325195 0.424805
vt 0.330078 0.452637
vt 0.011787 0.419922
vt 0.011475 0.410645
vt 0.026230 0.410156
vt 0.025620 0.419922
vt 0.012123 0.428711
vt 0.026382 0.429688
vt 0.025925 0.457520
vt 0.012947 0.455078
vt 0.011391 0.476074
vt 0.025070 0.478027
vt 0.027588 0.419922
vt 0.027359 0.409668
vt 0.029083 0.430664
vt 0.009644 0.420410
vt 0.009933 0.428711
vt 0.011841 0.454590
vt 0.027359 0.457031
vt 0.027084 0.477539
vt 0.080933 0.620361
vt 0.080566 0.619141
vt 0.009178 0.475586
vt 0.056488 0.531982
vt 0.046875 0.547119
vt 0.024437 0.529948
vt 0.035998 0.523491
vt 0.079651 0.607666
vt 0.096985 0.602783
vt 0.043549 0.568359
vt 0.032898 0.561035
vt 0.023102 0.552490
vt 0.013972 0.536673
vt 0.016578 0.535293
vt 0.108459 0.496582
vt 0.079041 0.501221
vt 0.095825 0.482422
vt 0.111633 0.517334
vt 0.266846 0.622314
vt 0.286377 0.631104
vt 0.279785 0.639160
vt 0.262451 0.631104
vt 0.272949 0.613770
vt 0.291748 0.620605
vt 0.107544 0.539062
vt 0.067505 0.516357
vt 0.243896 0.623291
vt 0.249268 0.614502
vt 0.253906 0.603760
vt 0.097534 0.555908
vt 0.073792 0.537187
vt 0.229004 0.617920
vt 0.296143 0.649170
vt 0.232910 0.608643
vt 0.236206 0.597168
vt 0.213257 0.613281
vt 0.070445 0.543765
vt 0.059967 0.581055
vt 0.064382 0.558255
vt 0.214844 0.602051
vt 0.217896 0.589844
vt 0.194824 0.608398
vt 0.181885 0.604004
vt 0.190918 0.596191
vt 0.192749 0.585205
vt 0.037781 0.581787
vt 0.171143 0.590820
vt 0.167236 0.602539
vt 0.172974 0.576660
vt 0.023132 0.573730
vt 0.156616 0.588623
vt 0.156860 0.575439
vt 0.154175 0.600586
vt 0.011154 0.562256
vt 0.130493 0.612061
vt 0.130493 0.601807
vt 0.140991 0.599854
vt 0.141235 0.612305
vt 0.140015 0.587402
vt 0.140869 0.572510
vt 0.009247 0.409668
vt 0.129517 0.599365
vt 0.129639 0.612793
vt 0.113220 0.599854
vt 0.007030 0.540283
vt 0.120728 0.588623
vt 0.101624 0.591064
vt 0.106934 0.577393
vt 0.119385 0.576904
vt 0.097717 0.577148
vt 0.091492 0.592773
vt 0.085083 0.580566
vt 0.062744 0.613037
vt 0.078979 0.609619
vt 0.027740 0.493843
vt 0.038208 0.483887
vt 0.052643 0.517837
vt 0.057495 0.475586
vt 0.042023 0.610596
vt 0.058838 0.603027
vt 0.045593 0.620117
vt 0.035797 0.600830
vt 0.054382 0.591797
vt 0.079468 0.473633
vt 0.023224 0.620361
vt 0.015854 0.608887
vt 0.009247 0.629395
vt 0.001470 0.620117
vt 0.028107 0.628174
vt 0.014587 0.636230
vt 0.306885 0.631592
vt 0.299561 0.641357
vt 0.077087 0.597900
vt 0.067992 0.586658
vt 0.349609 0.511230
vt 0.348389 0.510742
vt 0.349365 0.484863
vt 0.350342 0.484863
vt 0.346680 0.526367
vt 0.345703 0.525879
vt 0.191772 0.624023
vt 0.341553 0.512695
vt 0.338379 0.501221
vt 0.341309 0.538086
vt 0.340332 0.537598
vt 0.332031 0.525635
vt 0.333740 0.546387
vt 0.332764 0.545898
vt 0.327637 0.514404
vt 0.175415 0.619873
vt 0.329834 0.527588
vt 0.164917 0.617920
vt 0.323730 0.552734
vt 0.323486 0.551758
vt 0.319824 0.532959
vt 0.318604 0.520996
vt 0.312744 0.555908
vt 0.312500 0.555176
vt 0.154175 0.616699
vt 0.309570 0.536377
vt 0.307861 0.524658
vt 0.301025 0.558105
vt 0.301025 0.556885
vt 0.141846 0.615479
vt 0.297119 0.538574
vt 0.294922 0.526123
vt 0.290283 0.556396
vt 0.290283 0.555176
vt 0.114258 0.616211
vt 0.262451 0.529053
vt 0.263672 0.528564
vt 0.270752 0.540527
vt 0.270020 0.541260
vt 0.251709 0.505859
vt 0.252441 0.505371
vt 0.282715 0.536377
vt 0.280762 0.523926
vt 0.128418 0.615723
vt 0.268799 0.528809
vt 0.267090 0.516357
vt 0.279541 0.549072
vt 0.279297 0.550537
vt 0.155029 0.498535
vt 0.135498 0.482910
vt 0.152100 0.472168
vt 0.170166 0.492188
vt 0.148682 0.509521
vt 0.124451 0.501709
vt 0.172485 0.471280
vt 0.193359 0.471191
vt 0.192139 0.495117
vt 0.212158 0.479980
vt 0.147705 0.521240
vt 0.156006 0.535156
vt 0.130249 0.541260
vt 0.122742 0.522461
vt 0.175293 0.544922
vt 0.162720 0.565918
vt 0.143311 0.555908
vt 0.182251 0.569092
vt 0.202148 0.540283
vt 0.209106 0.561768
vt 0.210815 0.513428
vt 0.229126 0.499023
vt 0.210083 0.528320
vt 0.233765 0.517334
vt 0.231079 0.534912
vt 0.223389 0.550293
vt 0.043401 0.519808
vt 0.066268 0.585370
vt 0.083476 0.578460
vt 0.096111 0.575042
vt 0.093142 0.558166
vt 0.075194 0.543032
vt 0.024143 0.509285
vt 0.026839 0.504040
vt 0.002973 0.526432
vt 0.012777 0.516853
vt 0.026016 0.492554
vt 0.107314 0.574467
vt 0.114856 0.576668
vt 0.196310 0.582750
vt 0.218363 0.587389
vt 0.231813 0.599426
vt 0.019194 0.512149
vt 0.071848 0.549610
vt 0.002471 0.529682
vt 0.065785 0.564100
vt 0.063528 0.578600
vt 0.002501 0.540047
s 1
f 1/1/1 2/2/2 3/3/3
f 3/3/3 4/4/4 1/1/1
f 2/2/2 5/5/5 6/6/6
f 6/6/6 3/3/3 2/2/2
f 5/5/5 7/7/7 8/8/8
f 8/8/8 6/6/6 5/5/5
f 9/9/9 1/1/1 4/4/4
f 4/4/4 10/10/10 9/9/9
f 11/11/11 12/12/12 3/3/3
f 3/3/3 6/6/6 11/11/11
f 13/13/13 11/11/11 6/6/6
f 6/6/6 8/8/8 13/13/13
f 14/14/14 15/15/15 10/10/10
f 10/10/10 4/4/4 14/14/14
f 12/12/12 14/14/14 4/4/4
f 4/4/4 3/3/3 12/12/12
f 16/16/16 17/17/17 5/5/5
f 5/5/5 2/2/2 16/16/16
f 17/17/17 18/18/18 7/7/7
f 7/7/7 5/5/5 17/17/17
f 19/19/19 20/20/20 1/1/1
f 1/1/1 9/9/9 19/19/19
f 20/20/20 16/16/16 2/2/2
f 2/2/2 1/1/1 20/20/20
f 21/21/21 14/14/14 12/12/12
f 21/21/21 15/15/15 14/14/14
f 21/21/21 11/11/11 13/13/13
f 21/21/21 12/12/12 11/11/11
f 22/22/22 23/23/23 24/24/24
f 24/24/24 25/25/25 22/22/22
f 26/26/26 27/27/27 28/28/28
f 28/28/28 29/29/29 26/26/26
f 26/26/26 30/30/30 31/31/31
f 31/31/31 27/27/27 26/26/26
f 32/32/32 33/33/33 34/34/34
f 34/34/34 35/35/35 32/32/32
f 32/32/32 35/35/35 36/36/36
f 36/36/36 37/37/37 32/32/32
f 37/37/37 36/36/36 38/38/38
f 38/38/38 39/39/39 37/37/37
f 29/29/29 28/28/28 40/40/40
f 40/40/40 41/41/41 29/29/29
f 35/35/35 28/28/28 27/27/27
f 27/27/27 36/36/36 35/35/35
f 36/36/36 27/27/27 31/31/31
f 31/31/31 38/38/38 36/36/36
f 35/35/35 34/34/34 40/40/40
f 40/40/40 28/28/28 35/35/35
f 42/3/42 43/4/43 44/1/44
f 44/1/44 45/2/45 42/3/42
f 46/6/46 42/3/42 45/2/45
f 45/2/45 47/5/47 46/6/46
f 48/8/48 46/6/46 47/5/47
f 47/5/47 49/7/49 48/8/48
f 43/4/43 50/10/50 51/9/51
f 51/9/51 44/1/44 43/4/43
f 42/3/42 46/6/46 52/11/52
f 52/11/52 53/12/53 42/3/42
f 46/6/46 48/8/48 54/13/54
f 54/13/54 52/11/52 46/6/46
f 50/10/50 43/4/43 55/14/55
f 55/14/55 56/15/56 50/10/50
f 43/4/43 42/3/42 53/12/53
f 53/12/53 55/14/55 43/4/43
f 47/5/47 45/2/45 57/16/57
f 57/16/57 58/17/58 47/5/47
f 49/7/49 47/5/47 58/17/58
f 58/17/58 59/18/59 49/7/49
f 44/1/44 51/9/51 60/19/60
f 60/19/60 61/20/61 44/1/44
f 45/2/45 44/1/44 61/20/61
f 61/20/61 57/16/57 45/2/45
f 62/21/62 55/14/55 53/12/53
f 62/21/62 56/15/56 55/14/55
f 62/21/62 52/11/52 54/13/54
f 62/21/62 53/12/53 52/11/52
f 63/24/63 64/25/64 65/22/65
f 65/22/65 66/23/66 63/24/63
f 67/42/67 227/43/68 68/44/69
f 68/44/69 69/45/70 67/42/67
f 227/43/68 70/46/71 71/47/72
f 71/47/72 68/44/69 227/43/68
f 230/48/73 72/49/74 73/50/75
f 73/50/75 74/51/76 230/48/73
f 232/52/77 74/51/76 73/50/75
f 73/50/75 218/53/78 232/52/77
f 67/42/67 69/45/70 72/49/74
f 72/49/74 230/48/73 67/42/67
f 235/54/79 75/55/80 76/56/81
f 76/56/81 77/57/82 235/54/79
f 77/57/82 76/56/81 71/58/72
f 71/58/72 70/59/71 77/57/82
f 237/60/83 78/61/84 79/62/85
f 79/62/85 238/63/86 237/60/83
f 83/64/87 182/65/88 78/61/84
f 78/61/84 237/60/83 83/64/87
f 238/63/86 79/62/85 75/55/80
f 75/55/80 235/54/79 238/63/86
f 80/66/89 81/67/90 82/68/91
f 80/66/89 82/68/91 83/69/92
f 232/70/93 84/71/94 85/72/95
f 86/73/96 87/74/97 88/75/98
f 88/75/98 89/76/99 86/73/96
f 90/77/100 91/78/101 86/73/96
f 86/73/96 89/76/99 90/77/100
f 91/78/101 90/77/100 92/79/102
f 80/66/89 93/80/103 81/67/90
f 93/80/103 80/66/89 91/78/101
f 91/78/101 92/79/102 93/80/103
f 94/81/104 85/72/95 95/82/105
f 87/74/97 96/83/106 88/75/98
f 95/82/105 85/72/95 84/71/94
f 87/74/97 85/72/95 94/81/104
f 94/81/104 96/83/106 87/74/97
f 97/84/107 98/85/108 99/86/109
f 99/86/109 100/87/110 97/84/107
f 101/88/111 97/84/107 100/87/110
f 100/87/110 102/89/112 101/88/111
f 102/89/112 103/90/113 104/91/114
f 104/91/114 101/88/111 102/89/112
f 168/92/115 104/91/114 103/90/113
f 103/90/113 105/93/116 168/92/115
f 106/94/117 100/87/110 99/86/109
f 99/86/109 107/95/118 106/94/117
f 106/94/117 108/96/119 102/89/112
f 102/89/112 100/87/110 106/94/117
f 109/97/120 97/84/107 101/88/111
f 101/88/111 110/98/121 109/97/120
f 111/99/122 110/98/121 101/88/111
f 101/88/111 104/91/114 111/99/122
f 108/96/119 112/100/123 103/90/113
f 103/90/113 102/89/112 108/96/119
f 113/101/124 105/93/116 103/90/113
f 103/90/113 112/100/123 113/101/124
f 72/49/74 113/102/124 73/50/75
f 72/49/74 105/103/116 113/102/124
f 114/104/125 111/99/122 104/91/114
f 104/91/114 168/92/115 114/104/125
f 115/105/126 116/106/127 254/107/128 251/108/129
f 114/109/125 117/110/130 218/53/78
f 218/53/78 73/50/75 114/109/125
f 116/106/127 118/111/131 119/112/132
f 116/106/127 119/112/132 120/113/133
f 120/113/133 250/114/134 253/115/135
f 128/116/136 121/117/137 122/118/138
f 121/117/137 128/116/136 127/119/139
f 123/120/140 124/121/141 125/122/142
f 125/122/142 126/123/143 123/120/140
f 124/121/141 123/120/140 127/124/139
f 127/124/139 128/125/136 124/121/141
f 127/119/139 132/126/144 129/127/145
f 129/127/145 121/117/137 127/119/139
f 79/62/85 130/128/146 126/123/143
f 126/123/143 75/55/80 79/62/85
f 131/129/147 123/120/140 126/123/143
f 126/123/143 130/128/146 131/129/147
f 123/120/140 131/129/147 132/130/144
f 132/130/144 127/124/139 123/120/140
f 136/131/148 247/132/149 129/127/145
f 129/127/145 132/126/144 136/131/148
f 78/61/84 133/133/150 130/128/146
f 130/128/146 79/62/85 78/61/84
f 125/122/142 76/56/81 75/55/80
f 75/55/80 126/123/143 125/122/142
f 125/122/142 134/134/151 71/58/72
f 71/58/72 76/56/81 125/122/142
f 135/135/152 131/129/147 130/128/146
f 130/128/146 133/133/150 135/135/152
f 135/135/152 136/136/148 132/130/144
f 132/130/144 131/129/147 135/135/152
f 182/65/88 137/137/153 133/133/150
f 133/133/150 78/61/84 182/65/88
f 115/105/126 247/132/149 248/138/154
f 138/139/155 118/111/131 116/106/127
f 116/106/127 249/140/156 138/139/155
f 137/137/153 139/141/157 135/135/152
f 135/135/152 133/133/150 137/137/153
f 139/141/157 140/142/158 136/136/148
f 136/136/148 135/135/152 139/141/157
f 141/143/159 142/144/160 143/145/161
f 140/142/158 139/141/157 143/145/161
f 143/145/161 138/146/155 140/142/158
f 141/143/159 143/145/161 139/141/157
f 139/141/157 137/137/153 141/143/159
f 144/147/162 118/111/131 138/139/155
f 145/148/163 143/145/161 142/144/160
f 142/144/160 146/149/164 145/148/163
f 145/148/163 144/150/162 138/146/155
f 138/146/155 143/145/161 145/148/163
f 118/111/131 144/147/162 148/151/165
f 148/151/165 119/112/132 118/111/131
f 144/150/162 145/148/163 147/152/166
f 147/152/166 148/153/165 144/150/162
f 146/149/164 149/154/167 147/152/166
f 147/152/166 145/148/163 146/149/164
f 148/151/165 155/155/168 120/113/133
f 120/113/133 119/112/132 148/151/165
f 150/156/169 151/157/170 152/158/171
f 152/158/171 153/159/172 150/156/169
f 154/160/173 147/152/166 149/154/167
f 149/154/167 152/158/171 154/160/173
f 154/160/173 155/161/168 148/153/165
f 148/153/165 147/152/166 154/160/173
f 109/97/120 156/162/174 98/85/108
f 98/85/108 97/84/107 109/97/120
f 152/158/171 151/157/170 157/163/175
f 157/163/175 158/164/176 159/165/177
f 120/113/133 155/155/168 163/166/178
f 129/127/145 247/132/149 115/105/126
f 160/167/179 161/168/180 162/169/181
f 162/169/181 163/170/178 160/167/179
f 164/171/182 162/169/181 161/168/180
f 164/171/182 161/168/180 165/172/183
f 165/172/183 166/173/184 164/171/182
f 161/168/180 159/165/177 117/110/130
f 117/110/130 165/172/183 161/168/180
f 160/167/179 159/165/177 161/168/180
f 157/163/175 160/167/179 154/160/173
f 154/160/173 152/158/171 157/163/175
f 160/167/179 157/163/175 159/165/177
f 154/160/173 160/167/179 163/170/178
f 163/170/178 155/161/168 154/160/173
f 167/174/185 114/109/125 168/175/115
f 179/176/186 173/177/187 129/127/145
f 129/127/145 115/105/126 255/178/188
f 129/127/145 173/177/187 172/179/189
f 172/179/189 121/117/137 129/127/145
f 169/180/190 170/181/191 167/174/185
f 167/174/185 171/182/192 169/180/190
f 169/180/190 172/183/189 173/184/187
f 173/184/187 170/181/191 169/180/190
f 122/118/138 121/117/137 175/185/193
f 121/117/137 172/179/189 175/185/193
f 172/183/189 169/180/190 174/186/194
f 174/186/194 175/187/193 172/183/189
f 174/186/194 177/188/195 122/189/138
f 122/189/138 175/187/193 174/186/194
f 68/44/69 176/190/196 171/182/192
f 171/182/192 69/45/70 68/44/69
f 134/191/151 176/190/196 68/44/69
f 68/44/69 71/47/72 134/191/151
f 176/190/196 174/186/194 169/180/190
f 169/180/190 171/182/192 176/190/196
f 174/186/194 176/190/196 134/191/151
f 134/191/151 177/188/195 174/186/194
f 122/192/138 177/193/195 124/121/141
f 124/121/141 128/125/136 122/192/138
f 125/122/142 124/121/141 177/193/195
f 177/193/195 134/134/151 125/122/142
f 167/174/185 170/181/191 178/194/197
f 178/194/197 114/109/125 167/174/185
f 105/103/116 72/49/74 168/175/115
f 171/182/192 167/174/185 72/49/74
f 72/49/74 69/45/70 171/182/192
f 114/109/125 178/194/197 165/172/183
f 165/172/183 117/110/130 114/109/125
f 178/194/197 170/181/191 173/184/187
f 173/184/187 179/195/186 178/194/197
f 165/172/183 178/194/197 179/195/186
f 179/195/186 166/173/184 165/172/183
f 180/196/198 181/197/199 182/198/88
f 182/198/88 83/199/87 180/196/198
f 180/196/198 183/200/200 184/201/201
f 184/201/201 181/197/199 180/196/198
f 137/137/153 182/65/88 185/202/202
f 185/202/202 141/143/159 137/137/153
f 181/197/199 186/203/203 187/204/204
f 187/204/204 182/198/88 181/197/199
f 186/203/203 181/197/199 184/201/201
f 183/200/200 188/205/205 189/206/206
f 189/206/206 184/201/201 183/200/200
f 184/201/201 189/206/206 190/207/207
f 190/207/207 186/203/203 184/201/201
f 191/208/208 192/209/209 189/206/206
f 189/206/206 188/205/205 191/208/208
f 186/203/203 190/207/207 193/210/210
f 193/210/210 187/204/204 186/203/203
f 185/202/202 194/211/211 142/144/160
f 142/144/160 141/143/159 185/202/202
f 195/212/212 193/210/210 190/207/207
f 189/206/206 192/209/209 195/212/212
f 195/212/212 190/207/207 189/206/206
f 194/211/211 196/213/213 146/149/164
f 146/149/164 142/144/160 194/211/211
f 197/214/214 198/215/215 192/209/209
f 192/209/209 191/208/208 197/214/214
f 195/212/212 199/216/216 200/217/217
f 200/217/217 193/210/210 195/212/212
f 192/209/209 198/215/215 199/216/216
f 199/216/216 195/212/212 192/209/209
f 197/214/214 201/218/218 202/219/219
f 202/219/219 198/215/215 197/214/214
f 203/220/220 149/154/167 146/149/164
f 146/149/164 196/213/213 203/220/220
f 153/159/172 152/158/171 149/154/167
f 149/154/167 203/220/220 153/159/172
f 199/216/216 204/221/221 205/222/222
f 205/222/222 200/217/217 199/216/216
f 198/215/215 202/219/219 204/221/221
f 204/221/221 199/216/216 198/215/215
f 201/218/218 206/223/223 207/224/224
f 207/224/224 202/219/219 201/218/218
f 208/225/225 153/159/172 203/220/220
f 158/164/176 153/159/172 208/225/225
f 205/222/222 204/221/221 209/226/226
f 209/226/226 210/227/227 205/222/222
f 207/224/224 209/226/226 204/221/221
f 204/221/221 202/219/219 207/224/224
f 211/228/228 212/229/229 207/224/224
f 207/224/224 206/223/223 211/228/228
f 117/110/130 159/165/177 213/230/230
f 213/230/230 218/53/78 117/110/130
f 214/231/231 215/232/232 216/233/233
f 216/233/233 217/234/234 214/231/231
f 215/232/232 214/231/231 232/235/77
f 232/235/77 218/236/78 215/232/232
f 219/237/235 220/238/236 210/227/227
f 210/227/227 209/226/226 219/237/235
f 158/164/176 208/225/225 221/239/237
f 222/240/238 223/241/239 220/238/236
f 220/238/236 219/237/235 222/240/238
f 158/164/176 221/239/237 213/230/230
f 213/230/230 159/165/177 158/164/176
f 224/242/240 225/243/241 217/234/234
f 217/234/234 216/233/233 224/242/240
f 219/237/235 224/242/240 216/233/233
f 216/233/233 222/240/238 219/237/235
f 225/243/241 224/242/240 212/229/229
f 212/229/229 211/228/228 225/243/241
f 219/237/235 212/229/229 224/242/240
f 212/229/229 219/237/235 209/226/226
f 209/226/226 207/224/224 212/229/229
f 223/241/239 222/240/238 215/232/232
f 215/232/232 218/236/78 223/241/239
f 222/240/238 216/233/233 215/232/232
f 226/244/242 227/245/68 67/246/67
f 67/246/67 228/247/243 226/244/242
f 229/248/244 70/249/71 227/245/68
f 227/245/68 226/244/242 229/248/244
f 228/247/243 230/250/73 74/251/76
f 74/251/76 231/252/245 228/247/243
f 74/251/76 232/253/77 231/252/245
f 67/246/67 230/250/73 228/247/243
f 233/254/246 234/255/247 235/256/79
f 235/256/79 77/257/82 233/254/246
f 229/248/244 233/254/246 77/257/82
f 77/257/82 70/249/71 229/248/244
f 234/255/247 236/258/248 237/259/83
f 237/259/83 238/260/86 234/255/247
f 83/261/87 237/259/83 236/258/248
f 238/260/86 235/256/79 234/255/247
f 236/258/248 239/262/249 240/263/250
f 240/263/250 83/261/87 236/258/248
f 241/264/251 231/252/245 232/253/77
f 232/253/77 242/265/252 241/264/251
f 243/266/253 241/264/251 244/267/254
f 244/267/254 245/268/255 243/266/253
f 243/266/253 245/268/255 246/269/256
f 246/269/256 239/262/249 243/266/253
f 246/269/256 240/263/250 239/262/249
f 242/265/252 244/267/254 241/264/251
f 226/244/242 233/254/246 229/248/244
f 233/254/246 226/244/242 228/247/243
f 228/247/243 234/255/247 233/254/246
f 239/262/249 236/258/248 231/252/245
f 231/252/245 241/264/251 239/262/249
f 236/258/248 234/255/247 228/247/243
f 228/247/243 231/252/245 236/258/248
f 239/262/249 241/264/251 243/266/253
f 153/159/172 158/164/176 150/156/169
f 168/175/115 72/49/74 167/174/185
f 248/138/154 249/140/156 116/106/127 115/105/126
f 251/108/129 252/270/257 115/105/126
f 255/178/188 179/176/186 129/127/145
f 163/166/178 250/114/134 120/113/133
f 252/270/257 255/178/188 115/105/126
f 253/115/135 254/107/128 116/106/127 120/113/133
f 166/173/184 179/195/186 263/271/258 262/272/259
f 164/171/182 166/173/184 262/272/259 261/273/260
f 247/132/149 136/131/148 256/274/261 266/275/262
f 255/178/188 252/270/257 271/276/263 274/277/264
f 241/264/265 231/252/266 264/252/267 265/264/268
f 254/107/128 253/115/135 272/278/269 273/279/270
f 179/176/186 255/178/188 274/277/264 263/280/258
f 163/170/178 162/169/181 259/281/271 260/282/272
f 140/142/158 138/146/155 258/283/273 257/284/274
f 136/136/148 140/142/158 257/284/274 256/285/261
f 252/270/257 251/108/129 270/286/275 271/276/263
f 162/169/181 164/171/182 261/273/260 259/281/271
f 248/138/154 247/132/149 266/275/262 267/287/276
f 253/115/135 250/114/134 269/288/277 272/278/269
f 138/139/155 249/140/156 268/289/278 258/290/273
f 251/108/129 254/107/128 273/279/270 270/286/275
f 249/140/156 248/138/154 267/287/276 268/289/278
f 250/114/134 163/166/178 260/291/272 269/288/277
