# Blender 4.0.2
# www.blender.org
o chemistry_bottle_02
v -0.432934 -0.249120 0.003767
v 0.432297 -0.249120 0.003767
v 0.428397 -0.249120 1.585017
v 0.499487 0.000880 0.003767
v 0.428397 0.247750 1.585017
v -0.249731 0.432130 0.003767
v -0.428637 0.247750 1.585017
v -0.499731 0.000880 0.003767
v -0.383715 -0.221000 1.697517
v -0.428637 -0.249120 1.585017
v -0.247387 -0.430370 1.585017
v -0.221606 -0.383500 1.697517
v 0.000267 -0.496000 1.585017
v 0.000267 -0.442870 1.697517
v 0.247147 -0.430370 1.585017
v 0.221367 -0.383500 1.697517
v 0.383867 -0.221000 1.697517
v 0.494797 0.000880 1.585017
v 0.443237 0.000880 1.697517
v 0.383867 0.222750 1.697517
v 0.247147 0.429000 1.585017
v 0.221367 0.382130 1.697517
v 0.000267 0.494630 1.585017
v 0.000267 0.441500 1.697517
v -0.247387 0.429000 1.585017
v -0.221606 0.382130 1.697517
v -0.383715 0.222750 1.697517
v -0.495043 0.000880 1.585017
v -0.443090 0.000880 1.697517
v -0.287231 -0.164750 1.803767
v -0.165356 -0.286620 1.803767
v -0.117703 -0.117870 1.878767
v -0.172387 0.000880 1.878767
v -0.331371 0.000880 1.803767
v -0.117703 0.116500 1.878767
v -0.287231 0.166500 1.803767
v -0.165356 0.285250 1.803767
v 0.000267 0.172750 1.878767
v 0.000267 0.332130 1.803767
v 0.117457 0.116500 1.878767
v 0.165897 0.285250 1.803767
v 0.286987 0.166500 1.803767
v 0.331517 0.000880 1.803767
v 0.172147 0.000880 1.878767
v 0.286987 -0.164750 1.803767
v 0.117457 -0.117870 1.878767
v 0.165897 -0.286620 1.803767
v 0.000267 -0.174120 1.878767
v 0.000267 -0.330370 1.803767
v -0.086453 -0.086620 1.910017
v 0.086207 -0.086620 1.910017
v 0.126827 0.000880 1.910017
v 0.086207 0.085250 1.910017
v 0.000267 -0.127250 1.910017
v 0.125267 0.000880 2.022517
v 0.085427 0.085250 2.022517
v 0.000267 0.125880 1.910017
v -0.086453 0.085250 1.910017
v -0.085673 0.085250 2.022517
v -0.127073 0.000880 1.910017
v -0.120823 -0.121000 2.060017
v 0.000267 -0.177250 2.060017
v 0.120577 -0.121000 2.060017
v -0.120823 0.119630 2.060017
v -0.176293 0.000880 2.060017
v 0.000267 -0.124120 2.022517
v 0.000267 -0.177250 2.028767
v -0.120043 -0.121000 2.028767
v -0.085673 -0.086620 2.022517
v 0.085427 -0.086620 2.022517
v 0.000267 0.125880 2.022517
v -0.125513 0.000880 2.022517
v -0.175512 0.000880 2.028767
v -0.074733 -0.074120 2.066267
v -0.109103 0.000880 2.066267
v -0.074733 0.075880 2.066267
v 0.000267 0.110250 2.066267
v 0.000267 0.175880 2.060017
v 0.120577 0.119630 2.060017
v 0.074487 0.075880 2.066267
v 0.109647 0.000880 2.066267
v 0.074487 -0.074120 2.066267
v 0.000267 -0.108500 2.066267
v -0.249731 -0.433500 0.003767
v 0.000267 0.497750 0.003767
v 0.249487 0.432130 0.003767
v 0.000267 -0.499120 0.003767
v 0.432297 0.250880 0.003767
v 0.249487 -0.433500 0.003767
v -0.432934 0.250880 0.003767
v 0.176047 0.000880 2.060017
v 0.119797 -0.121000 2.028767
v 0.176047 0.000880 2.028767
v 0.119797 0.119630 2.028767
v 0.000267 0.175880 2.028767
v -0.120043 0.119630 2.028767
vn -0.6571 -0.3775 -0.6525
vn -0.3788 -0.6572 -0.6516
vn -0.4873 -0.8467 0.2136
vn -0.8463 -0.4887 0.2121
vn 0.0003 -0.7570 -0.6534
vn 0.0004 -0.9771 0.2127
vn 0.3794 -0.6569 -0.6516
vn 0.4875 -0.8466 0.2134
vn 0.6567 -0.3776 -0.6528
vn 0.8464 -0.4890 0.2109
vn 0.7582 0.0001 -0.6521
vn 0.9781 0.0012 0.2079
vn 0.6558 0.3809 -0.6517
vn 0.8474 0.4893 0.2061
vn 0.3764 0.6580 -0.6522
vn 0.4860 0.8477 0.2126
vn 0.0004 0.7571 -0.6533
vn 0.0008 0.9771 0.2129
vn -0.3756 0.6582 -0.6524
vn -0.4860 0.8477 0.2127
vn -0.6562 0.3807 -0.6516
vn -0.8472 0.4891 0.2073
vn -0.7580 0.0001 -0.6522
vn -0.9779 0.0010 0.2090
vn -0.7121 -0.4087 0.5709
vn -0.4104 -0.7090 0.5735
vn 0.0001 -0.8193 0.5733
vn 0.4107 -0.7094 0.5728
vn 0.7126 -0.4089 0.5701
vn 0.8239 0.0003 0.5667
vn 0.7124 0.4142 0.5665
vn 0.4079 0.7118 0.5718
vn -0.0002 0.8222 0.5692
vn -0.4072 0.7108 0.5736
vn -0.7116 0.4142 0.5675
vn -0.8230 -0.0000 0.5681
vn -0.5027 -0.2888 0.8148
vn -0.2892 -0.5029 0.8145
vn -0.3340 -0.3307 0.8827
vn -0.4714 0.0188 0.8817
vn -0.5769 0.0051 0.8168
vn -0.3409 0.3282 0.8809
vn -0.4965 0.2844 0.8201
vn -0.2889 0.5031 0.8145
vn 0.0169 0.4652 0.8850
vn 0.0027 0.5813 0.8137
vn 0.3371 0.3370 0.8791
vn 0.2828 0.4971 0.8203
vn 0.4960 0.2837 0.8207
vn 0.5765 0.0052 0.8171
vn 0.4710 0.0186 0.8820
vn 0.5020 -0.2884 0.8154
vn 0.3292 -0.3403 0.8808
vn 0.2817 -0.4982 0.8201
vn 0.0191 -0.4687 0.8831
vn 0.0050 -0.5772 0.8166
vn 0.0056 -0.8400 0.5425
vn -0.6111 -0.6063 0.5089
vn 0.6085 -0.6072 0.5110
vn 0.8470 0.0060 0.5315
vn 0.6075 0.6115 0.5070
vn 0.0019 0.8455 0.5339
vn -0.6067 0.6124 0.5069
vn -0.8471 0.0060 0.5315
vn -0.4723 -0.4776 -0.7409
vn 0.0032 -0.6552 -0.7554
vn 0.4698 -0.4764 -0.7432
vn 0.6489 0.0045 -0.7608
vn 0.4770 0.4780 -0.7375
vn 0.0016 0.6422 -0.7665
vn -0.4764 0.4784 -0.7377
vn -0.6497 0.0046 -0.7602
vn 0.0006 -0.8101 -0.5863
vn -0.5640 -0.5641 -0.6030
vn 0.5650 -0.5634 -0.6028
vn 0.8110 0.0040 -0.5850
vn 0.5623 0.5651 -0.6037
vn 0.0002 0.8114 -0.5845
vn -0.5615 0.5663 -0.6033
vn -0.8037 0.0039 -0.5950
vn -0.5699 -0.5618 0.5997
vn -0.0671 -0.0667 0.9955
vn -0.0927 0.0005 0.9957
vn -0.8107 0.0039 0.5855
vn -0.5675 0.5643 0.5995
vn -0.0687 0.0698 0.9952
vn 0.0002 0.0950 0.9955
vn 0.0002 0.8047 0.5937
vn 0.5685 0.5630 0.5999
vn 0.0685 0.0700 0.9952
vn 0.0934 0.0005 0.9956
vn 0.8046 0.0039 0.5938
vn 0.5705 -0.5611 0.5998
vn 0.0669 -0.0669 0.9955
vn 0.0002 -0.0908 0.9959
vn 0.0010 -0.8039 0.5948
vt 0.900879 0.868042
vt 0.916504 0.868042
vt 0.916504 0.995102
vt 0.900879 0.995102
vt 0.937988 0.868042
vt 0.937988 0.995102
vt 0.957031 0.868042
vt 0.957031 0.995102
vt 0.975586 0.868042
vt 0.975586 0.995102
vt 0.995117 0.868042
vt 0.995117 0.995102
vt 0.762207 0.995102
vt 0.762207 0.868042
vt 0.784180 0.868042
vt 0.784180 0.995102
vt 0.804199 0.868042
vt 0.804199 0.995102
vt 0.823242 0.868042
vt 0.823242 0.995102
vt 0.841309 0.868042
vt 0.841309 0.995102
vt 0.860840 0.868042
vt 0.860352 0.995102
vt 0.879395 0.868042
vt 0.879395 0.995102
vt 0.875488 0.469238
vt 0.882812 0.459473
vt 0.900879 0.483887
vt 0.889160 0.488281
vt 0.901855 0.514648
vt 0.891602 0.512207
vt 0.888184 0.541992
vt 0.879395 0.533203
vt 0.861328 0.556885
vt 0.858398 0.545166
vt 0.832031 0.555908
vt 0.835938 0.544189
vt 0.808105 0.541016
vt 0.816895 0.532959
vt 0.794922 0.517090
vt 0.806152 0.514160
vt 0.793945 0.490234
vt 0.805664 0.492676
vt 0.807129 0.466309
vt 0.815430 0.474121
vt 0.833496 0.461914
vt 0.829102 0.450684
vt 0.856934 0.448242
vt 0.854980 0.459961
vt 0.866699 0.479980
vt 0.875977 0.492676
vt 0.859375 0.494629
vt 0.850098 0.487305
vt 0.852539 0.473145
vt 0.838867 0.490234
vt 0.837891 0.474609
vt 0.825195 0.482910
vt 0.832520 0.499023
vt 0.818359 0.496094
vt 0.834473 0.510010
vt 0.818848 0.510742
vt 0.826172 0.523682
vt 0.839355 0.531250
vt 0.843262 0.517334
vt 0.854980 0.531494
vt 0.854492 0.514893
vt 0.869629 0.523682
vt 0.861816 0.505615
vt 0.877930 0.509277
vt 0.856445 0.504395
vt 0.854492 0.497070
vt 0.851562 0.510254
vt 0.844238 0.512207
vt 0.839355 0.507080
vt 0.837402 0.500244
vt 0.842285 0.495117
vt 0.849121 0.492188
vt 0.311768 0.871094
vt 0.302246 0.871216
vt 0.302246 0.863770
vt 0.311768 0.863647
vt 0.302246 0.856323
vt 0.311768 0.856323
vt 0.302246 0.848511
vt 0.311768 0.848633
vt 0.311768 0.901184
vt 0.311768 0.908997
vt 0.302246 0.908997
vt 0.302246 0.901184
vt 0.302246 0.893616
vt 0.311768 0.893616
vt 0.302246 0.885986
vt 0.311768 0.886108
vt 0.302246 0.878601
vt 0.311768 0.878601
vt 0.557617 0.965210
vt 0.553223 0.966888
vt 0.553711 0.955292
vt 0.557617 0.956909
vt 0.563477 0.970795
vt 0.562012 0.974701
vt 0.571777 0.971100
vt 0.573730 0.975204
vt 0.577637 0.964996
vt 0.581543 0.966614
vt 0.577637 0.956696
vt 0.582031 0.954987
vt 0.571777 0.951111
vt 0.573242 0.947205
vt 0.563477 0.950806
vt 0.561523 0.946686
vt 0.742676 0.934875
vt 0.740723 0.929504
vt 0.746094 0.924988
vt 0.750977 0.927490
vt 0.751465 0.916077
vt 0.746094 0.918091
vt 0.741699 0.912903
vt 0.744141 0.907715
vt 0.732422 0.907410
vt 0.734375 0.912781
vt 0.729004 0.917175
vt 0.724121 0.914673
vt 0.724121 0.926025
vt 0.729492 0.924072
vt 0.733887 0.929382
vt 0.731445 0.934570
vt 0.856934 0.354980
vt 0.863770 0.439941
vt 0.841309 0.441895
vt 0.833984 0.356934
vt 0.820312 0.432129
vt 0.815430 0.369629
vt 0.890625 0.383301
vt 0.892090 0.406250
vt 0.882812 0.426758
vt 0.877441 0.364746
vt 0.807617 0.413086
vt 0.805664 0.390625
vt 0.729980 0.937073
vt 0.743652 0.937378
vt 0.745117 0.940704
vt 0.729004 0.940308
vt 0.718262 0.928284
vt 0.721191 0.926880
vt 0.721680 0.913513
vt 0.718262 0.912292
vt 0.729980 0.901794
vt 0.731445 0.904907
vt 0.746582 0.901978
vt 0.745117 0.905212
vt 0.757324 0.914001
vt 0.753906 0.915283
vt 0.756836 0.929871
vt 0.753418 0.928589
s 1
f 1/1/1 84/2/2 11/3/3
f 11/3/3 10/4/4 1/1/1
f 84/2/2 87/5/5 13/6/6
f 13/6/6 11/3/3 84/2/2
f 13/6/6 87/5/5 89/7/7
f 89/7/7 15/8/8 13/6/6
f 15/8/8 89/7/7 2/9/9
f 2/9/9 3/10/10 15/8/8
f 3/10/10 2/9/9 4/11/11
f 4/11/11 18/12/12 3/10/10
f 18/13/12 4/14/11 88/15/13
f 88/15/13 5/16/14 18/13/12
f 86/17/15 21/18/16 5/16/14
f 5/16/14 88/15/13 86/17/15
f 85/19/17 23/20/18 21/18/16
f 21/18/16 86/17/15 85/19/17
f 23/20/18 85/19/17 6/21/19
f 6/21/19 25/22/20 23/20/18
f 25/22/20 6/21/19 90/23/21
f 90/23/21 7/24/22 25/22/20
f 7/24/22 90/23/21 8/25/23
f 8/25/23 28/26/24 7/24/22
f 1/1/1 10/4/4 28/26/24
f 28/26/24 8/25/23 1/1/1
f 9/27/25 10/28/4 11/29/3
f 11/29/3 12/30/26 9/27/25
f 11/29/3 13/31/6 14/32/27
f 14/32/27 12/30/26 11/29/3
f 15/33/8 16/34/28 14/32/27
f 14/32/27 13/31/6 15/33/8
f 16/34/28 15/33/8 3/35/10
f 3/35/10 17/36/29 16/34/28
f 17/36/29 3/35/10 18/37/12
f 18/37/12 19/38/30 17/36/29
f 5/39/14 20/40/31 19/38/30
f 19/38/30 18/37/12 5/39/14
f 21/41/16 22/42/32 20/40/31
f 20/40/31 5/39/14 21/41/16
f 22/42/32 21/41/16 23/43/18
f 23/43/18 24/44/33 22/42/32
f 25/45/20 26/46/34 24/44/33
f 24/44/33 23/43/18 25/45/20
f 27/47/35 26/46/34 25/45/20
f 25/45/20 7/48/22 27/47/35
f 27/47/35 7/48/22 28/49/24
f 28/49/24 29/50/36 27/47/35
f 9/27/25 29/50/36 28/49/24
f 28/49/24 10/28/4 9/27/25
f 30/51/37 31/52/38 32/53/39
f 33/54/40 34/55/41 30/51/37
f 30/51/37 32/53/39 33/54/40
f 34/55/41 33/54/40 35/56/42
f 35/56/42 36/57/43 34/55/41
f 35/56/42 37/58/44 36/57/43
f 37/58/44 35/56/42 38/59/45
f 38/59/45 39/60/46 37/58/44
f 39/60/46 38/59/45 40/61/47
f 40/61/47 41/62/48 39/60/46
f 41/62/48 40/61/47 42/63/49
f 43/64/50 42/63/49 40/61/47
f 40/61/47 44/65/51 43/64/50
f 45/66/52 43/64/50 44/65/51
f 44/65/51 46/67/53 45/66/52
f 45/66/52 46/67/53 47/68/54
f 46/67/53 48/69/55 49/70/56
f 49/70/56 47/68/54 46/67/53
f 48/69/55 32/53/39 31/52/38
f 31/52/38 49/70/56 48/69/55
f 49/70/56 31/52/38 12/30/26
f 12/30/26 14/32/27 49/70/56
f 12/30/26 31/52/38 30/51/37
f 30/51/37 9/27/25 12/30/26
f 34/55/41 29/50/36 9/27/25
f 9/27/25 30/51/37 34/55/41
f 34/55/41 36/57/43 27/47/35
f 27/47/35 29/50/36 34/55/41
f 37/58/44 26/46/34 27/47/35
f 27/47/35 36/57/43 37/58/44
f 37/58/44 39/60/46 24/44/33
f 24/44/33 26/46/34 37/58/44
f 39/60/46 41/62/48 22/42/32
f 22/42/32 24/44/33 39/60/46
f 41/62/48 42/63/49 20/40/31
f 20/40/31 22/42/32 41/62/48
f 19/38/30 20/40/31 42/63/49
f 42/63/49 43/64/50 19/38/30
f 17/36/29 19/38/30 43/64/50
f 43/64/50 45/66/52 17/36/29
f 47/68/54 16/34/28 17/36/29
f 17/36/29 45/66/52 47/68/54
f 47/68/54 49/70/56 14/32/27
f 14/32/27 16/34/28 47/68/54
f 48/69/55 54/71/57 50/72/58
f 50/72/58 32/53/39 48/69/55
f 46/67/53 51/73/59 54/71/57
f 54/71/57 48/69/55 46/67/53
f 52/74/60 51/73/59 46/67/53
f 46/67/53 44/65/51 52/74/60
f 40/61/47 53/75/61 52/74/60
f 52/74/60 44/65/51 40/61/47
f 57/76/62 53/75/61 40/61/47
f 40/61/47 38/59/45 57/76/62
f 35/56/42 58/77/63 57/76/62
f 57/76/62 38/59/45 35/56/42
f 35/56/42 33/54/40 60/78/64
f 60/78/64 58/77/63 35/56/42
f 32/53/39 50/72/58 60/78/64
f 60/78/64 33/54/40 32/53/39
f 69/79/65 50/80/58 54/81/57
f 54/81/57 66/82/66 69/79/65
f 51/83/59 70/84/67 66/82/66
f 66/82/66 54/81/57 51/83/59
f 70/84/67 51/83/59 52/85/60
f 52/85/60 55/86/68 70/84/67
f 56/87/69 55/88/68 52/89/60
f 52/89/60 53/90/61 56/87/69
f 57/91/62 71/92/70 56/87/69
f 56/87/69 53/90/61 57/91/62
f 58/93/63 59/94/71 71/92/70
f 71/92/70 57/91/62 58/93/63
f 60/95/64 72/96/72 59/94/71
f 59/94/71 58/93/63 60/95/64
f 69/79/65 72/96/72 60/95/64
f 60/95/64 50/80/58 69/79/65
f 66/97/66 67/98/73 68/99/74
f 68/99/74 69/100/65 66/97/66
f 70/101/67 92/102/75 67/98/73
f 67/98/73 66/97/66 70/101/67
f 55/103/68 93/104/76 92/102/75
f 92/102/75 70/101/67 55/103/68
f 56/105/69 94/106/77 93/104/76
f 93/104/76 55/103/68 56/105/69
f 94/106/77 56/105/69 71/107/70
f 71/107/70 95/108/78 94/106/77
f 71/107/70 59/109/71 96/110/79
f 96/110/79 95/108/78 71/107/70
f 96/110/79 59/109/71 72/111/72
f 72/111/72 73/112/80 96/110/79
f 72/111/72 69/100/65 68/99/74
f 68/99/74 73/112/80 72/111/72
f 61/113/81 74/114/82 75/115/83
f 75/115/83 65/116/84 61/113/81
f 64/117/85 65/116/84 75/115/83
f 75/115/83 76/118/86 64/117/85
f 64/117/85 76/118/86 77/119/87
f 77/119/87 78/120/88 64/117/85
f 79/121/89 78/120/88 77/119/87
f 77/119/87 80/122/90 79/121/89
f 79/121/89 80/122/90 81/123/91
f 81/123/91 91/124/92 79/121/89
f 63/125/93 91/124/92 81/123/91
f 81/123/91 82/126/94 63/125/93
f 63/125/93 82/126/94 83/127/95
f 83/127/95 62/128/96 63/125/93
f 61/113/81 62/128/96 83/127/95
f 83/127/95 74/114/82 61/113/81
f 84/129/2 85/130/17 86/131/15
f 86/131/15 87/132/5 84/129/2
f 87/132/5 86/131/15 88/133/13
f 88/133/13 89/134/7 87/132/5
f 8/135/23 90/136/21 6/137/19
f 6/137/19 1/138/1 8/135/23
f 89/134/7 88/133/13 4/139/11
f 4/139/11 2/140/9 89/134/7
f 1/138/1 6/137/19 85/130/17
f 85/130/17 84/129/2 1/138/1
f 62/141/96 61/142/81 68/143/74
f 68/143/74 67/144/73 62/141/96
f 62/141/96 67/144/73 92/145/75
f 92/145/75 63/146/93 62/141/96
f 91/147/92 63/146/93 92/145/75
f 92/145/75 93/148/76 91/147/92
f 94/149/77 79/150/89 91/147/92
f 91/147/92 93/148/76 94/149/77
f 95/151/78 78/152/88 79/150/89
f 79/150/89 94/149/77 95/151/78
f 78/152/88 95/151/78 96/153/79
f 96/153/79 64/154/85 78/152/88
f 96/153/79 73/155/80 65/156/84
f 65/156/84 64/154/85 96/153/79
f 61/142/81 65/156/84 73/155/80
f 73/155/80 68/143/74 61/142/81
