# Blender 4.0.2
# www.blender.org
o graduated_cylinder
v 3.423138 3.498320 5.615620
v 3.529388 3.445190 5.581250
v 3.529388 3.445190 5.615620
v 3.648138 3.426440 5.581250
v 3.763758 3.445190 5.615620
v 3.954388 3.582690 5.581250
v 4.029388 3.807690 5.581250
v 4.010638 3.924880 5.615620
v 3.954388 4.031129 5.581250
v 3.870008 4.115510 5.615620
v 3.763758 4.168630 5.581250
v 3.648138 4.187380 5.615620
v 3.423138 4.115510 5.615620
v 3.338758 4.031130 5.581250
v 3.338758 4.031130 5.615620
v 3.285638 3.924880 5.615620
v 3.266888 3.807690 5.581250
v 3.266888 3.807690 5.615620
v 3.648138 4.187380 5.581250
v 4.010638 3.688940 5.581250
v 3.529388 4.168630 5.581250
v 3.285638 3.688940 5.615620
v 3.338758 3.582690 5.615620
v 3.648138 3.426440 5.615620
v 3.870008 3.498320 5.615620
v 3.954388 3.582690 5.615620
v 4.010638 3.688940 5.615620
v 4.029388 3.807690 5.615620
v 3.816888 3.892070 5.640620
v 3.954388 4.031129 5.615620
v 3.763758 4.168630 5.615620
v 3.616888 3.993630 5.640620
v 3.529388 4.168630 5.615620
v 3.513758 3.940510 5.640620
v 3.479388 3.721760 5.640620
v 3.560638 3.638940 5.640620
v 3.676258 3.620190 5.640620
v 3.782508 3.673320 5.640620
v 3.835638 3.778010 5.640620
v 3.823138 3.779570 8.575000
v 3.732508 3.974880 5.640620
v 3.729388 3.967070 8.575000
v 3.520008 3.934260 8.575000
v 3.460638 3.835820 5.640620
v 3.566888 3.648320 8.575000
v 3.579388 3.673320 8.575000
v 3.513758 3.738940 8.575000
v 3.488758 3.726440 8.575000
v 3.676258 3.629570 8.575000
v 3.773138 3.681130 8.575000
v 3.754388 3.701440 8.575000
v 3.795008 3.784260 8.575000
v 3.807508 3.888940 8.575000
v 3.779388 3.874880 8.575000
v 3.713758 3.940510 8.575000
v 3.620008 3.984260 8.575000
v 3.623138 3.954570 8.575000
v 3.470008 3.834260 8.575000
v 3.501258 3.831130 8.575000
v 3.285638 3.924880 5.581250
v 3.763758 3.445190 5.581250
v 3.870008 3.498320 5.581250
v 3.423138 4.115510 5.581250
v 3.285638 3.688940 5.581250
v 3.423138 3.498320 5.581250
v 3.338758 3.582690 5.581250
v 3.870008 4.115510 5.581250
v 4.010638 3.924880 5.581250
v 3.579388 3.673320 8.543750
v 3.513758 3.738940 8.543750
v 3.670008 3.659260 8.575000
v 3.670008 3.659260 8.543750
v 3.754388 3.701440 8.543750
v 3.795008 3.784260 8.543750
v 3.779388 3.874880 8.543750
v 3.713758 3.940510 8.543750
v 3.623138 3.954570 8.543750
v 3.541888 3.912380 8.575000
v 3.541888 3.912380 8.543750
v 3.573138 3.659260 8.518750
v 3.498138 3.731130 8.518750
v 3.673138 3.643630 8.518750
v 3.763758 3.688940 8.518750
v 3.810638 3.781130 8.518750
v 3.795008 3.882690 8.518750
v 3.723138 3.954570 8.518750
v 3.620008 3.971760 8.518750
v 3.529388 3.924880 8.518750
v 3.482508 3.832690 8.518750
v 3.501258 3.831130 8.543750
vn -0.7397 -0.2361 0.6302
vn -0.7033 -0.2254 -0.6743
vn -0.6002 -0.4326 -0.6728
vn -0.6299 -0.4554 0.6291
vn -0.4326 -0.6002 -0.6728
vn -0.4555 -0.6300 0.6290
vn -0.2254 -0.7033 -0.6742
vn -0.2360 -0.7397 0.6302
vn 0.0015 -0.7395 -0.6732
vn 0.0005 -0.7773 0.6292
vn 0.2267 -0.7024 -0.6747
vn 0.2394 -0.7384 0.6304
vn 0.4326 -0.6002 -0.6728
vn 0.4538 -0.6316 0.6286
vn 0.5934 -0.4383 -0.6751
vn 0.6250 -0.4601 0.6307
vn 0.7026 -0.2342 -0.6719
vn 0.7379 -0.2471 0.6281
vn 0.7393 0.0008 -0.6734
vn 0.7771 0.0019 0.6294
vn 0.7022 0.2349 -0.6721
vn 0.7382 0.2458 0.6282
vn 0.5934 0.4383 -0.6751
vn 0.6236 0.4618 0.6308
vn 0.4326 0.6002 -0.6728
vn 0.4554 0.6302 0.6288
vn 0.2267 0.7024 -0.6747
vn 0.2374 0.7389 0.6306
vn 0.0015 0.7395 -0.6732
vn 0.0027 0.7773 0.6292
vn -0.2254 0.7033 -0.6743
vn -0.2380 0.7392 0.6300
vn -0.4326 0.6002 -0.6728
vn -0.4539 0.6313 0.6289
vn -0.6002 0.4326 -0.6728
vn -0.6313 0.4537 0.6290
vn -0.7029 0.2260 -0.6745
vn -0.7386 0.2388 0.6304
vn -0.7393 0.0008 -0.6734
vn -0.7771 -0.0002 0.6293
vn -0.6056 -0.3071 0.7341
vn -0.3109 -0.6005 0.7368
vn 0.1022 -0.6701 0.7352
vn 0.4770 -0.4792 0.7368
vn 0.6684 -0.1036 0.7366
vn 0.6006 0.3116 0.7364
vn 0.3065 0.6060 0.7341
vn -0.1060 0.6678 0.7368
vn -0.4805 0.4775 0.7356
vn -0.6687 0.1032 0.7363
vn -0.3507 -0.6779 0.6461
vn -0.6773 -0.3515 0.6463
vn 0.1217 -0.7566 0.6424
vn 0.5444 -0.5342 0.6467
vn 0.7526 -0.1244 0.6466
vn 0.6845 0.3424 0.6436
vn 0.3467 0.6813 0.6447
vn -0.1171 0.7546 0.6456
vn -0.5412 0.5413 0.6435
vn -0.7567 0.1111 0.6443
vn 0.2809 0.5534 0.7841
vn 0.5532 0.2742 0.7866
vn -0.0960 0.6154 0.7823
vn -0.4382 0.4349 0.7867
vn -0.6151 0.0883 0.7835
vn -0.5535 -0.2868 0.7820
vn -0.2809 -0.5534 0.7841
vn 0.1004 -0.6122 0.7843
vn 0.4426 -0.4359 0.7837
vn 0.6175 -0.1025 0.7799
vn 0.4315 0.8540 -0.2907
vn 0.8467 0.4238 -0.3218
vn -0.1449 0.9443 -0.2955
vn -0.6857 0.6682 -0.2885
vn -0.9448 0.1398 -0.2963
vn -0.8414 -0.4369 -0.3181
vn -0.4241 -0.8515 -0.3083
vn 0.1495 -0.9364 -0.3174
vn 0.6737 -0.6649 -0.3226
vn 0.9285 -0.1591 -0.3354
vn 0.3751 0.7648 -0.5239
vn 0.7336 0.3734 -0.5678
vn -0.1332 0.8329 -0.5371
vn -0.5928 0.6062 -0.5302
vn -0.8322 0.1363 -0.5374
vn -0.7317 -0.3761 -0.5685
vn -0.3840 -0.7338 -0.5605
vn 0.1294 -0.8094 -0.5728
vn 0.5796 -0.5754 -0.5770
vn 0.7941 -0.1244 -0.5949
vt 0.588379 0.134277
vt 0.589355 0.131348
vt 0.600098 0.137207
vt 0.598145 0.139648
vt 0.607910 0.145020
vt 0.605469 0.146973
vt 0.613770 0.155762
vt 0.610840 0.157227
vt 0.616211 0.168457
vt 0.612793 0.168457
vt 0.613770 0.180664
vt 0.610840 0.179688
vt 0.607910 0.191406
vt 0.605469 0.189453
vt 0.600098 0.199219
vt 0.598145 0.196777
vt 0.589355 0.205078
vt 0.588379 0.202148
vt 0.577148 0.207031
vt 0.577148 0.204102
vt 0.564453 0.205078
vt 0.565918 0.202148
vt 0.553711 0.199219
vt 0.555664 0.196777
vt 0.545898 0.191406
vt 0.548340 0.189453
vt 0.540039 0.180664
vt 0.542969 0.179688
vt 0.538086 0.168457
vt 0.541016 0.168457
vt 0.540039 0.155762
vt 0.542969 0.157227
vt 0.545898 0.145020
vt 0.548340 0.146973
vt 0.553711 0.137207
vt 0.555664 0.139648
vt 0.564453 0.131348
vt 0.565918 0.134277
vt 0.577148 0.129395
vt 0.577148 0.132324
vt 0.608887 0.167969
vt 0.566895 0.198730
vt 0.557617 0.194336
vt 0.607422 0.158203
vt 0.608887 0.068848
vt 0.617676 0.073242
vt 0.606445 0.083984
vt 0.624023 0.080078
vt 0.612793 0.090820
vt 0.628418 0.088379
vt 0.629883 0.097656
vt 0.614258 0.100098
vt 0.628418 0.106934
vt 0.624023 0.115234
vt 0.609863 0.108398
vt 0.617188 0.122070
vt 0.608887 0.126465
vt 0.602051 0.112305
vt 0.599609 0.127930
vt 0.590332 0.126465
vt 0.592773 0.110840
vt 0.582031 0.122070
vt 0.575195 0.115234
vt 0.586426 0.104492
vt 0.570801 0.106934
vt 0.569336 0.097656
vt 0.584961 0.095215
vt 0.570801 0.088379
vt 0.575195 0.080078
vt 0.588867 0.086914
vt 0.582031 0.073242
vt 0.590332 0.068848
vt 0.597168 0.083008
vt 0.599609 0.067383
vt 0.116211 0.076172
vt 0.124817 0.076172
vt 0.124573 0.313477
vt 0.116089 0.313477
vt 0.132202 0.076172
vt 0.132202 0.313477
vt 0.140137 0.076172
vt 0.140137 0.313477
vt 0.147949 0.076172
vt 0.148315 0.313477
vt 0.156860 0.076172
vt 0.156860 0.313477
vt 0.165161 0.076172
vt 0.165161 0.313477
vt 0.090027 0.076172
vt 0.089905 0.313477
vt 0.080811 0.313477
vt 0.080811 0.076172
vt 0.098511 0.076172
vt 0.098511 0.313477
vt 0.106873 0.076172
vt 0.106995 0.313477
vt 0.912109 0.661377
vt 0.908203 0.661621
vt 0.908203 0.647217
vt 0.912109 0.647217
vt 0.912109 0.674316
vt 0.908203 0.674316
vt 0.912109 0.687500
vt 0.908203 0.687500
vt 0.912109 0.700928
vt 0.908203 0.700928
vt 0.912109 0.715332
vt 0.908203 0.715332
vt 0.912109 0.729492
vt 0.908203 0.729492
vt 0.908203 0.588135
vt 0.912109 0.588135
vt 0.912109 0.603271
vt 0.908203 0.603271
vt 0.912109 0.617676
vt 0.908203 0.617676
vt 0.912109 0.632080
vt 0.908203 0.632080
vt 0.586426 0.137695
vt 0.595703 0.142090
vt 0.545898 0.178223
vt 0.544434 0.167969
vt 0.550781 0.187012
vt 0.602539 0.149414
vt 0.566895 0.137695
vt 0.576660 0.136230
vt 0.545898 0.158203
vt 0.550781 0.149414
vt 0.557617 0.142090
vt 0.602539 0.187012
vt 0.586426 0.198730
vt 0.576660 0.200684
vt 0.607422 0.178223
vt 0.595703 0.194336
vt 0.300781 0.708496
vt 0.305176 0.708496
vt 0.305176 0.718506
vt 0.300781 0.718506
vt 0.300781 0.698242
vt 0.305176 0.698242
vt 0.300781 0.687988
vt 0.305176 0.688232
vt 0.300781 0.677979
vt 0.305176 0.677979
vt 0.305176 0.667969
vt 0.300781 0.667969
vt 0.305176 0.657959
vt 0.300781 0.657959
vt 0.305176 0.749023
vt 0.305176 0.759521
vt 0.300781 0.759521
vt 0.300781 0.749023
vt 0.300781 0.739014
vt 0.305176 0.739014
vt 0.300781 0.728760
vt 0.305176 0.728760
vt 0.308105 0.708496
vt 0.308105 0.718506
vt 0.308105 0.698242
vt 0.308105 0.688232
vt 0.308105 0.677979
vt 0.308105 0.667969
vt 0.308105 0.657959
vt 0.308105 0.759521
vt 0.308105 0.749023
vt 0.308105 0.739014
vt 0.308105 0.728760
s 1
f 22/1/1 64/2/2 66/3/3
f 66/3/3 23/4/4 22/1/1
f 23/4/4 66/3/3 65/5/5
f 65/5/5 1/6/6 23/4/4
f 65/5/5 2/7/7 3/8/8
f 3/8/8 1/6/6 65/5/5
f 4/9/9 24/10/10 3/8/8
f 3/8/8 2/7/7 4/9/9
f 61/11/11 5/12/12 24/10/10
f 24/10/10 4/9/9 61/11/11
f 62/13/13 25/14/14 5/12/12
f 5/12/12 61/11/11 62/13/13
f 6/15/15 26/16/16 25/14/14
f 25/14/14 62/13/13 6/15/15
f 26/16/16 6/15/15 20/17/17
f 20/17/17 27/18/18 26/16/16
f 7/19/19 28/20/20 27/18/18
f 27/18/18 20/17/17 7/19/19
f 68/21/21 8/22/22 28/20/20
f 28/20/20 7/19/19 68/21/21
f 68/21/21 9/23/23 30/24/24
f 30/24/24 8/22/22 68/21/21
f 67/25/25 10/26/26 30/24/24
f 30/24/24 9/23/23 67/25/25
f 67/25/25 11/27/27 31/28/28
f 31/28/28 10/26/26 67/25/25
f 11/27/27 19/29/29 12/30/30
f 12/30/30 31/28/28 11/27/27
f 21/31/31 33/32/32 12/30/30
f 12/30/30 19/29/29 21/31/31
f 63/33/33 13/34/34 33/32/32
f 33/32/32 21/31/31 63/33/33
f 13/34/34 63/33/33 14/35/35
f 14/35/35 15/36/36 13/34/34
f 15/36/36 14/35/35 60/37/37
f 60/37/37 16/38/38 15/36/36
f 16/38/38 60/37/37 17/39/39
f 17/39/39 18/40/40 16/38/38
f 22/1/1 18/40/40 17/39/39
f 17/39/39 64/2/2 22/1/1
f 19/41/29 20/42/17 6/43/15
f 6/43/15 21/44/31 19/41/29
f 22/45/1 23/46/4 35/47/41
f 1/48/6 36/49/42 35/47/41
f 35/47/41 23/46/4 1/48/6
f 1/48/6 3/50/8 36/49/42
f 36/49/42 3/50/8 24/51/10
f 24/51/10 37/52/43 36/49/42
f 24/51/10 5/53/12 37/52/43
f 37/52/43 5/53/12 25/54/14
f 25/54/14 38/55/44 37/52/43
f 25/54/14 26/56/16 38/55/44
f 26/56/16 27/57/18 39/58/45
f 39/58/45 38/55/44 26/56/16
f 27/57/18 28/59/20 39/58/45
f 39/58/45 28/59/20 8/60/22
f 8/60/22 29/61/46 39/58/45
f 8/60/22 30/62/24 29/61/46
f 29/61/46 30/62/24 10/63/26
f 10/63/26 41/64/47 29/61/46
f 10/63/26 31/65/28 41/64/47
f 12/66/30 32/67/48 41/64/47
f 41/64/47 31/65/28 12/66/30
f 12/66/30 33/68/32 32/67/48
f 32/67/48 33/68/32 13/69/34
f 13/69/34 34/70/49 32/67/48
f 13/69/34 15/71/36 34/70/49
f 34/70/49 15/71/36 16/72/38
f 16/72/38 44/73/50 34/70/49
f 16/72/38 18/74/40 44/73/50
f 22/45/1 35/47/41 44/73/50
f 44/73/50 18/74/40 22/45/1
f 35/75/41 36/76/42 45/77/51
f 45/77/51 48/78/52 35/75/41
f 45/77/51 36/76/42 37/79/43
f 37/79/43 49/80/53 45/77/51
f 38/81/44 50/82/54 49/80/53
f 49/80/53 37/79/43 38/81/44
f 39/83/45 40/84/55 50/82/54
f 50/82/54 38/81/44 39/83/45
f 29/85/46 53/86/56 40/84/55
f 40/84/55 39/83/45 29/85/46
f 41/87/47 42/88/57 53/86/56
f 53/86/56 29/85/46 41/87/47
f 32/89/48 56/90/58 42/91/57
f 42/91/57 41/92/47 32/89/48
f 56/90/58 32/89/48 34/93/49
f 34/93/49 43/94/59 56/90/58
f 44/95/50 58/96/60 43/94/59
f 43/94/59 34/93/49 44/95/50
f 44/95/50 35/75/41 48/78/52
f 48/78/52 58/96/60 44/95/50
f 45/97/51 46/98/61 47/99/62
f 47/99/62 48/100/52 45/97/51
f 49/101/53 71/102/63 46/98/61
f 46/98/61 45/97/51 49/101/53
f 50/103/54 51/104/64 71/102/63
f 71/102/63 49/101/53 50/103/54
f 40/105/55 52/106/65 51/104/64
f 51/104/64 50/103/54 40/105/55
f 53/107/56 54/108/66 52/106/65
f 52/106/65 40/105/55 53/107/56
f 54/108/66 53/107/56 42/109/57
f 42/109/57 55/110/67 54/108/66
f 55/111/67 42/112/57 56/113/58
f 56/113/58 57/114/68 55/111/67
f 56/113/58 43/115/59 78/116/69
f 78/116/69 57/114/68 56/113/58
f 78/116/69 43/115/59 58/117/60
f 58/117/60 59/118/70 78/116/69
f 59/118/70 58/117/60 48/100/52
f 48/100/52 47/99/62 59/118/70
f 60/119/37 14/120/35 61/121/11
f 61/121/11 4/122/9 60/119/37
f 62/123/13 61/121/11 14/120/35
f 14/120/35 63/124/33 62/123/13
f 64/125/2 17/126/39 2/127/7
f 2/127/7 65/128/5 64/125/2
f 4/122/9 2/127/7 17/126/39
f 17/126/39 60/119/37 4/122/9
f 64/125/2 65/128/5 66/129/3
f 21/44/31 6/43/15 62/123/13
f 62/123/13 63/124/33 21/44/31
f 67/130/25 68/131/21 7/132/19
f 7/132/19 11/133/27 67/130/25
f 7/132/19 20/42/17 19/41/29
f 19/41/29 11/133/27 7/132/19
f 68/131/21 67/130/25 9/134/23
f 46/135/61 69/136/71 70/137/72
f 70/137/72 47/138/62 46/135/61
f 71/139/63 72/140/73 69/136/71
f 69/136/71 46/135/61 71/139/63
f 72/140/73 71/139/63 51/141/64
f 51/141/64 73/142/74 72/140/73
f 52/143/65 74/144/75 73/142/74
f 73/142/74 51/141/64 52/143/65
f 75/145/76 74/144/75 52/143/65
f 52/143/65 54/146/66 75/145/76
f 76/147/77 75/145/76 54/146/66
f 54/146/66 55/148/67 76/147/77
f 77/149/78 76/150/77 55/151/67
f 55/151/67 57/152/68 77/149/78
f 57/152/68 78/153/69 79/154/79
f 79/154/79 77/149/78 57/152/68
f 78/153/69 59/155/70 90/156/80
f 90/156/80 79/154/79 78/153/69
f 90/156/80 59/155/70 47/138/62
f 47/138/62 70/137/72 90/156/80
f 69/136/71 80/157/81 81/158/82
f 81/158/82 70/137/72 69/136/71
f 69/136/71 72/140/73 82/159/83
f 82/159/83 80/157/81 69/136/71
f 83/160/84 82/159/83 72/140/73
f 72/140/73 73/142/74 83/160/84
f 74/144/75 84/161/85 83/160/84
f 83/160/84 73/142/74 74/144/75
f 74/144/75 75/145/76 85/162/86
f 85/162/86 84/161/85 74/144/75
f 86/163/87 85/162/86 75/145/76
f 75/145/76 76/147/77 86/163/87
f 86/164/87 76/150/77 77/149/78
f 77/149/78 87/165/88 86/164/87
f 88/166/89 87/165/88 77/149/78
f 77/149/78 79/154/79 88/166/89
f 89/167/90 88/166/89 79/154/79
f 79/154/79 90/156/80 89/167/90
f 89/167/90 90/156/80 70/137/72
f 70/137/72 81/158/82 89/167/90
